{
    "KW 02 - 2019": {
        "Klicks": 203033,
        "Klicks Vorjahr": 0
    },
    "KW 03 - 2019": {
        "Klicks": 166476,
        "Klicks Vorjahr": 0
    },
    "KW 04 - 2019": {
        "Klicks": 150859,
        "Klicks Vorjahr": 0
    },
    "KW 05 - 2019": {
        "Klicks": 154993,
        "Klicks Vorjahr": 0
    },
    "KW 06 - 2019": {
        "Klicks": 133631,
        "Klicks Vorjahr": 0
    },
    "KW 07 - 2019": {
        "Klicks": 126628,
        "Klicks Vorjahr": 0
    },
    "KW 08 - 2019": {
        "Klicks": 134448,
        "Klicks Vorjahr": 0
    },
    "KW 09 - 2019": {
        "Klicks": 138914,
        "Klicks Vorjahr": 0
    },
    "KW 10 - 2019": {
        "Klicks": 132801,
        "Klicks Vorjahr": 0
    },
    "KW 11 - 2019": {
        "Klicks": 134446,
        "Klicks Vorjahr": 0
    },
    "KW 12 - 2019": {
        "Klicks": 126606,
        "Klicks Vorjahr": 0
    },
    "KW 13 - 2019": {
        "Klicks": 133934,
        "Klicks Vorjahr": 0
    },
    "KW 14 - 2019": {
        "Klicks": 128996,
        "Klicks Vorjahr": 0
    },
    "KW 15 - 2019": {
        "Klicks": 151978,
        "Klicks Vorjahr": 0
    },
    "KW 16 - 2019": {
        "Klicks": 113111,
        "Klicks Vorjahr": 0
    },
    "KW 17 - 2019": {
        "Klicks": 135383,
        "Klicks Vorjahr": 0
    },
    "KW 18 - 2019": {
        "Klicks": 120636,
        "Klicks Vorjahr": 0
    },
    "KW 19 - 2019": {
        "Klicks": 127723,
        "Klicks Vorjahr": 75942
    },
    "KW 20 - 2019": {
        "Klicks": 125574,
        "Klicks Vorjahr": 90087
    },
    "KW 21 - 2019": {
        "Klicks": 124576,
        "Klicks Vorjahr": 84803
    },
    "KW 22 - 2019": {
        "Klicks": 101146,
        "Klicks Vorjahr": 86638
    },
    "KW 23 - 2019": {
        "Klicks": 113300,
        "Klicks Vorjahr": 89351
    },
    "KW 24 - 2019": {
        "Klicks": 127297,
        "Klicks Vorjahr": 90028
    },
    "KW 25 - 2019": {
        "Klicks": 114410,
        "Klicks Vorjahr": 99408
    },
    "KW 26 - 2019": {
        "Klicks": 116160,
        "Klicks Vorjahr": 91481
    },
    "KW 27 - 2019": {
        "Klicks": 105308,
        "Klicks Vorjahr": 97960
    },
    "KW 28 - 2019": {
        "Klicks": 105162,
        "Klicks Vorjahr": 96718
    },
    "KW 29 - 2019": {
        "Klicks": 126547,
        "Klicks Vorjahr": 92640
    },
    "KW 30 - 2019": {
        "Klicks": 125409,
        "Klicks Vorjahr": 92311
    },
    "KW 31 - 2019": {
        "Klicks": 130471,
        "Klicks Vorjahr": 91869
    },
    "KW 32 - 2019": {
        "Klicks": 131075,
        "Klicks Vorjahr": 91658
    },
    "KW 33 - 2019": {
        "Klicks": 126737,
        "Klicks Vorjahr": 91816
    },
    "KW 34 - 2019": {
        "Klicks": 128736,
        "Klicks Vorjahr": 93150
    }
}