[
    {
        "Keyword": "reiser\u00fccktrittsversicherung",
        "URL": "https:\/\/www.allianz.de\/reise-und-freizeit\/reiseruecktrittsversicherung\/",
        "Rank heute": 14,
        "Rank Vorwoche": 15,
        "Ver\u00e4nderung": 1,
        "\u00d8 Ranking 12 Monate": 23.58,
        "SV": 90500,
        "Klicks": 1
    },
    {
        "Keyword": "zahnzusatzversicherung",
        "URL": "https:\/\/www.allianz.de\/gesundheit\/zahnzusatzversicherung\/",
        "Rank heute": 8,
        "Rank Vorwoche": 5,
        "Ver\u00e4nderung": -3,
        "\u00d8 Ranking 12 Monate": 7.24,
        "SV": 60500,
        "Klicks": 415
    },
    {
        "Keyword": "private krankenversicherung",
        "URL": "https:\/\/www.allianz.de\/gesundheit\/private-krankenversicherung\/",
        "Rank heute": 12,
        "Rank Vorwoche": 12,
        "Ver\u00e4nderung": 0,
        "\u00d8 Ranking 12 Monate": 22.96,
        "SV": 40500,
        "Klicks": 15
    },
    {
        "Keyword": "pflegeversicherung",
        "URL": "https:\/\/www.allianz.de\/gesundheit\/pflegeversicherung\/",
        "Rank heute": 16,
        "Rank Vorwoche": 17,
        "Ver\u00e4nderung": 1,
        "\u00d8 Ranking 12 Monate": 15.74,
        "SV": 22200,
        "Klicks": 0
    },
    {
        "Keyword": "reisekrankenversicherung",
        "URL": "https:\/\/www.allianz.de\/gesundheit\/reisekrankenversicherung\/",
        "Rank heute": 5,
        "Rank Vorwoche": 1,
        "Ver\u00e4nderung": -4,
        "\u00d8 Ranking 12 Monate": 4.43,
        "SV": 9900,
        "Klicks": 123
    },
    {
        "Keyword": "berufsunf\u00e4higkeitsversicherung",
        "URL": "https:\/\/www.allianz.de\/vorsorge\/berufsunfaehigkeitsversicherung\/",
        "Rank heute": 7,
        "Rank Vorwoche": 4,
        "Ver\u00e4nderung": -3,
        "\u00d8 Ranking 12 Monate": 6.99,
        "SV": 49500,
        "Klicks": 184
    },
    {
        "Keyword": "private rentenversicherung",
        "URL": "https:\/\/www.allianz.de\/vorsorge\/private-rentenversicherung\/rechner\/ (featured)",
        "Rank heute": 1,
        "Rank Vorwoche": 1,
        "Ver\u00e4nderung": 0,
        "\u00d8 Ranking 12 Monate": 1.11,
        "SV": 9900,
        "Klicks": 507
    },
    {
        "Keyword": "risikolebensversicherung",
        "URL": "https:\/\/www.allianz.de\/vorsorge\/risikolebensversicherung\/",
        "Rank heute": 4,
        "Rank Vorwoche": 6,
        "Ver\u00e4nderung": 2,
        "\u00d8 Ranking 12 Monate": 7.9,
        "SV": 33100,
        "Klicks": 107
    },
    {
        "Keyword": "lebensversicherung",
        "URL": "https:\/\/www.allianz.de\/vorsorge\/lebensversicherung\/",
        "Rank heute": 16,
        "Rank Vorwoche": 30,
        "Ver\u00e4nderung": 14,
        "\u00d8 Ranking 12 Monate": 59.75,
        "SV": 27100,
        "Klicks": 19
    },
    {
        "Keyword": "riester rente",
        "URL": "https:\/\/www.allianz.de\/vorsorge\/riester-rente\/rechner\/",
        "Rank heute": 7,
        "Rank Vorwoche": 5,
        "Ver\u00e4nderung": -2,
        "\u00d8 Ranking 12 Monate": 14.78,
        "SV": 33100,
        "Klicks": 63
    },
    {
        "Keyword": "kfz versicherung rechner",
        "URL": "https:\/\/www.allianz.de\/auto\/kfz-versicherung\/rechner\/ (featured)",
        "Rank heute": 1,
        "Rank Vorwoche": 1,
        "Ver\u00e4nderung": 0,
        "\u00d8 Ranking 12 Monate": 1.05,
        "SV": 1900,
        "Klicks": 170
    },
    {
        "Keyword": "kfz versicherung",
        "URL": "https:\/\/www.allianz.de\/auto\/kfz-versicherung\/rechner\/",
        "Rank heute": 2,
        "Rank Vorwoche": 2,
        "Ver\u00e4nderung": 0,
        "\u00d8 Ranking 12 Monate": 5.57,
        "SV": 110000,
        "Klicks": 728
    },
    {
        "Keyword": "hausrat-haftpflicht-kombi",
        "URL": "https:\/\/www.allianz.de\/recht-und-eigentum\/hausrat-haftpflicht-kombi\/rechner\/",
        "Rank heute": 3,
        "Rank Vorwoche": 3,
        "Ver\u00e4nderung": 0,
        "\u00d8 Ranking 12 Monate": 1.75,
        "SV": 720,
        "Klicks": 1
    },
    {
        "Keyword": "hausratversicherung",
        "URL": "https:\/\/www.allianz.de\/recht-und-eigentum\/hausratversicherung\/",
        "Rank heute": 7,
        "Rank Vorwoche": 4,
        "Ver\u00e4nderung": -3,
        "\u00d8 Ranking 12 Monate": 17.91,
        "SV": 49500,
        "Klicks": 170
    },
    {
        "Keyword": "private haftpflichtversicherung",
        "URL": "https:\/\/www.allianz.de\/recht-und-eigentum\/privat-haftpflichtversicherung\/",
        "Rank heute": 3,
        "Rank Vorwoche": 3,
        "Ver\u00e4nderung": 0,
        "\u00d8 Ranking 12 Monate": 7.3,
        "SV": 9900,
        "Klicks": 45
    },
    {
        "Keyword": "rechtsschutzversicherung",
        "URL": "https:\/\/www.allianz.de\/recht-und-eigentum\/rechtsschutzversicherung\/",
        "Rank heute": 6,
        "Rank Vorwoche": 7,
        "Ver\u00e4nderung": 1,
        "\u00d8 Ranking 12 Monate": 7.63,
        "SV": 90500,
        "Klicks": 320
    },
    {
        "Keyword": "unfallversicherung",
        "URL": "https:\/\/www.allianz.de\/vorsorge\/unfallversicherung\/",
        "Rank heute": 8,
        "Rank Vorwoche": 9,
        "Ver\u00e4nderung": 1,
        "\u00d8 Ranking 12 Monate": 19.1,
        "SV": 27100,
        "Klicks": 39
    },
    {
        "Keyword": "oldtimerversicherung",
        "URL": "https:\/\/www.allianz.de\/auto\/oldtimer-versicherung\/",
        "Rank heute": 3,
        "Rank Vorwoche": 3,
        "Ver\u00e4nderung": 0,
        "\u00d8 Ranking 12 Monate": 7.36,
        "SV": 6600,
        "Klicks": 19
    },
    {
        "Keyword": "hundekrankenversicherung",
        "URL": "https:\/\/www.allianz.de\/gesundheit\/hundekrankenversicherung\/",
        "Rank heute": 5,
        "Rank Vorwoche": 4,
        "Ver\u00e4nderung": -1,
        "\u00d8 Ranking 12 Monate": 4.62,
        "SV": 14800,
        "Klicks": 251
    },
    {
        "Keyword": "wohngeb\u00e4udeversicherung",
        "URL": "https:\/\/www.allianz.de\/recht-und-eigentum\/wohngebaeudeversicherung\/",
        "Rank heute": 4,
        "Rank Vorwoche": 7,
        "Ver\u00e4nderung": 3,
        "\u00d8 Ranking 12 Monate": 20.5,
        "SV": 22200,
        "Klicks": 40
    },
    {
        "Keyword": "versicherung",
        "URL": "https:\/\/www.allianz.de\/auto\/kfz-versicherung\/rechner\/",
        "Rank heute": 17,
        "Rank Vorwoche": 15,
        "Ver\u00e4nderung": -2,
        "\u00d8 Ranking 12 Monate": 14.62,
        "SV": 49500,
        "Klicks": 9
    },
    {
        "Keyword": "altersvorsorge",
        "URL": "-",
        "Rank heute": 101,
        "Rank Vorwoche": 101,
        "Ver\u00e4nderung": 0,
        "\u00d8 Ranking 12 Monate": 52.93,
        "SV": 12100,
        "Klicks": 1
    },
    {
        "Keyword": "krankenzusatzversicherung",
        "URL": "https:\/\/www.allianz.de\/gesundheit\/krankenzusatzversicherung\/",
        "Rank heute": 2,
        "Rank Vorwoche": 2,
        "Ver\u00e4nderung": 0,
        "\u00d8 Ranking 12 Monate": 4.14,
        "SV": 6600,
        "Klicks": 75
    },
    {
        "Keyword": "riesterrente",
        "URL": "https:\/\/www.allianz.de\/vorsorge\/riester-rente\/rechner\/",
        "Rank heute": 5,
        "Rank Vorwoche": 5,
        "Ver\u00e4nderung": 0,
        "\u00d8 Ranking 12 Monate": 15.15,
        "SV": 33100,
        "Klicks": 8
    }
]