{
    "results": [
        {
            "CW": "19",
            "Jahr": "2018",
            "Klicks": 10121
        },
        {
            "CW": "20",
            "Jahr": "2018",
            "Klicks": 11436
        },
        {
            "CW": "21",
            "Jahr": "2018",
            "Klicks": 11108
        },
        {
            "CW": "22",
            "Jahr": "2018",
            "Klicks": 11291
        },
        {
            "CW": "23",
            "Jahr": "2018",
            "Klicks": 12095
        },
        {
            "CW": "24",
            "Jahr": "2018",
            "Klicks": 12449
        },
        {
            "CW": "25",
            "Jahr": "2018",
            "Klicks": 13674
        },
        {
            "CW": "26",
            "Jahr": "2018",
            "Klicks": 13115
        },
        {
            "CW": "27",
            "Jahr": "2018",
            "Klicks": 15133
        },
        {
            "CW": "28",
            "Jahr": "2018",
            "Klicks": 15254
        },
        {
            "CW": "29",
            "Jahr": "2018",
            "Klicks": 14601
        },
        {
            "CW": "30",
            "Jahr": "2018",
            "Klicks": 14283
        },
        {
            "CW": "31",
            "Jahr": "2018",
            "Klicks": 14313
        },
        {
            "CW": "32",
            "Jahr": "2018",
            "Klicks": 13881
        },
        {
            "CW": "33",
            "Jahr": "2018",
            "Klicks": 13645
        },
        {
            "CW": "34",
            "Jahr": "2018",
            "Klicks": 14095
        },
        {
            "CW": "35",
            "Jahr": "2018",
            "Klicks": 13746
        },
        {
            "CW": "36",
            "Jahr": "2018",
            "Klicks": 13308
        },
        {
            "CW": "37",
            "Jahr": "2018",
            "Klicks": 13415
        },
        {
            "CW": "38",
            "Jahr": "2018",
            "Klicks": 13758
        },
        {
            "CW": "39",
            "Jahr": "2018",
            "Klicks": 13421
        },
        {
            "CW": "40",
            "Jahr": "2018",
            "Klicks": 13728
        },
        {
            "CW": "41",
            "Jahr": "2018",
            "Klicks": 14378
        },
        {
            "CW": "42",
            "Jahr": "2018",
            "Klicks": 15208
        },
        {
            "CW": "43",
            "Jahr": "2018",
            "Klicks": 15676
        },
        {
            "CW": "44",
            "Jahr": "2018",
            "Klicks": 15816
        },
        {
            "CW": "45",
            "Jahr": "2018",
            "Klicks": 17521
        },
        {
            "CW": "46",
            "Jahr": "2018",
            "Klicks": 17021
        },
        {
            "CW": "47",
            "Jahr": "2018",
            "Klicks": 16712
        },
        {
            "CW": "48",
            "Jahr": "2018",
            "Klicks": 16998
        },
        {
            "CW": "49",
            "Jahr": "2018",
            "Klicks": 15814
        },
        {
            "CW": "50",
            "Jahr": "2018",
            "Klicks": 15355
        },
        {
            "CW": "51",
            "Jahr": "2018",
            "Klicks": 14126
        },
        {
            "CW": "52",
            "Jahr": "2018",
            "Klicks": 13186
        },
        {
            "CW": "01",
            "Jahr": 2019,
            "Klicks": 16379
        },
        {
            "CW": "02",
            "Jahr": "2019",
            "Klicks": 20305
        },
        {
            "CW": "03",
            "Jahr": "2019",
            "Klicks": 20018
        },
        {
            "CW": "04",
            "Jahr": "2019",
            "Klicks": 19828
        },
        {
            "CW": "05",
            "Jahr": "2019",
            "Klicks": 19577
        },
        {
            "CW": "06",
            "Jahr": "2019",
            "Klicks": 19014
        },
        {
            "CW": "07",
            "Jahr": "2019",
            "Klicks": 18369
        },
        {
            "CW": "08",
            "Jahr": "2019",
            "Klicks": 18724
        },
        {
            "CW": "09",
            "Jahr": "2019",
            "Klicks": 18566
        },
        {
            "CW": "10",
            "Jahr": "2019",
            "Klicks": 19397
        },
        {
            "CW": "11",
            "Jahr": "2019",
            "Klicks": 19270
        },
        {
            "CW": "12",
            "Jahr": "2019",
            "Klicks": 19364
        },
        {
            "CW": "13",
            "Jahr": "2019",
            "Klicks": 19874
        },
        {
            "CW": "14",
            "Jahr": "2019",
            "Klicks": 19848
        },
        {
            "CW": "15",
            "Jahr": "2019",
            "Klicks": 21792
        },
        {
            "CW": "16",
            "Jahr": "2019",
            "Klicks": 16177
        },
        {
            "CW": "17",
            "Jahr": "2019",
            "Klicks": 18713
        },
        {
            "CW": "18",
            "Jahr": "2019",
            "Klicks": 17880
        },
        {
            "CW": "19",
            "Jahr": "2019",
            "Klicks": 19312
        },
        {
            "CW": "20",
            "Jahr": "2019",
            "Klicks": 19170
        },
        {
            "CW": "21",
            "Jahr": "2019",
            "Klicks": 18862
        },
        {
            "CW": "22",
            "Jahr": "2019",
            "Klicks": 15787
        },
        {
            "CW": "23",
            "Jahr": "2019",
            "Klicks": 16745
        },
        {
            "CW": "24",
            "Jahr": "2019",
            "Klicks": 17391
        },
        {
            "CW": "25",
            "Jahr": "2019",
            "Klicks": 16502
        },
        {
            "CW": "26",
            "Jahr": "2019",
            "Klicks": 15887
        },
        {
            "CW": "27",
            "Jahr": "2019",
            "Klicks": 14950
        },
        {
            "CW": "28",
            "Jahr": "2019",
            "Klicks": 14870
        },
        {
            "CW": "29",
            "Jahr": "2019",
            "Klicks": 19006
        },
        {
            "CW": "30",
            "Jahr": "2019",
            "Klicks": 18637
        },
        {
            "CW": "31",
            "Jahr": "2019",
            "Klicks": 19731
        },
        {
            "CW": "32",
            "Jahr": "2019",
            "Klicks": 19543
        },
        {
            "CW": "33",
            "Jahr": "2019",
            "Klicks": 19100
        },
        {
            "CW": "34",
            "Jahr": "2019",
            "Klicks": 15321
        },
        {
            "CW": "34",
            "Jahr": "2019",
            "Klicks": 18398
        }
    ]
}