{
    "results": [
        {
            "Device": "DESKTOP",
            "value": 50.36
        },
        {
            "Device": "MOBILE",
            "value": 43.21
        },
        {
            "Device": "TABLET",
            "value": 6.43
        }
    ]
}