{
    "results": [
        {
            "cw": "02",
            "sparte": "kranken",
            "value": 2.89
        },
        {
            "cw": "03",
            "sparte": "kranken",
            "value": 3.05
        },
        {
            "cw": "04",
            "sparte": "kranken",
            "value": 3.15
        },
        {
            "cw": "05",
            "sparte": "kranken",
            "value": 3.15
        },
        {
            "cw": "06",
            "sparte": "kranken",
            "value": 3.27
        },
        {
            "cw": "07",
            "sparte": "kranken",
            "value": 3.14
        },
        {
            "cw": "08",
            "sparte": "kranken",
            "value": 2.95
        },
        {
            "cw": "09",
            "sparte": "kranken",
            "value": 3.11
        },
        {
            "cw": "10",
            "sparte": "kranken",
            "value": 3.08
        },
        {
            "cw": "11",
            "sparte": "kranken",
            "value": 3.39
        },
        {
            "cw": "12",
            "sparte": "kranken",
            "value": 3.12
        },
        {
            "cw": "13",
            "sparte": "kranken",
            "value": 3.51
        },
        {
            "cw": "14",
            "sparte": "kranken",
            "value": 3.49
        },
        {
            "cw": "15",
            "sparte": "kranken",
            "value": 3.34
        },
        {
            "cw": "16",
            "sparte": "kranken",
            "value": 3.55
        },
        {
            "cw": "17",
            "sparte": "kranken",
            "value": 3.55
        },
        {
            "cw": "18",
            "sparte": "kranken",
            "value": 3.44
        },
        {
            "cw": "19",
            "sparte": "kranken",
            "value": 3.33
        },
        {
            "cw": "20",
            "sparte": "kranken",
            "value": 3.44
        },
        {
            "cw": "21",
            "sparte": "kranken",
            "value": 3.38
        },
        {
            "cw": "22",
            "sparte": "kranken",
            "value": 3.47
        },
        {
            "cw": "23",
            "sparte": "kranken",
            "value": 3.92
        },
        {
            "cw": "24",
            "sparte": "kranken",
            "value": 3.97
        },
        {
            "cw": "25",
            "sparte": "kranken",
            "value": 3.76
        },
        {
            "cw": "26",
            "sparte": "kranken",
            "value": 3.54
        },
        {
            "cw": "27",
            "sparte": "kranken",
            "value": 3.68
        },
        {
            "cw": "28",
            "sparte": "kranken",
            "value": 3.68
        },
        {
            "cw": "29",
            "sparte": "kranken",
            "value": 3.38
        },
        {
            "cw": "30",
            "sparte": "kranken",
            "value": 3.6
        },
        {
            "cw": "31",
            "sparte": "kranken",
            "value": 3.95
        },
        {
            "cw": "32",
            "sparte": "kranken",
            "value": 3.76
        },
        {
            "cw": "33",
            "sparte": "kranken",
            "value": 3.67
        },
        {
            "cw": "34",
            "sparte": "kranken",
            "value": 3.89
        },
        {
            "cw": "35",
            "sparte": "kranken",
            "value": 3.72
        },
        {
            "cw": "36",
            "sparte": "kranken",
            "value": 3.63
        }
    ]
}